{
  "project_info": {
    "project_number": "453684246268",
    "firebase_url": "https://iiride-271713.firebaseio.com",
    "project_id": "iiride-271713",
    "storage_bucket": "iiride-271713.appspot.com"
  },
  "client": [
    {
      "client_info": {
        "mobilesdk_app_id": "1:453684246268:android:eb8522b50eaf786c278979",
        "android_client_info": {
          "package_name": "iiride.app.driver"
        }
      },
      "oauth_client": [
        {
          "client_id": "453684246268-06493ld3rhuaqgjecmp5fjodnsng56v4.apps.googleusercontent.com",
          "client_type": 3
        }
      ],
      "api_key": [
        {
          "current_key": "AIzaSyBKL5Xqq0Nw_LAi0P5hSbivvk7-PtSOCq4"
        }
      ],
      "services": {
        "appinvite_service": {
          "other_platform_oauth_client": [
            {
              "client_id": "453684246268-06493ld3rhuaqgjecmp5fjodnsng56v4.apps.googleusercontent.com",
              "client_type": 3
            },
            {
              "client_id": "453684246268-r34s4clqdv2fbap7hosiv9aqcp9f7d61.apps.googleusercontent.com",
              "client_type": 2,
              "ios_info": {
                "bundle_id": "com.eww.iiride.driver"
              }
            }
          ]
        }
      }
    },
    {
      "client_info": {
        "mobilesdk_app_id": "1:453684246268:android:8ee10f614e032698278979",
        "android_client_info": {
          "package_name": "iiride.app.rider"
        }
      },
      "oauth_client": [
        {
          "client_id": "453684246268-06493ld3rhuaqgjecmp5fjodnsng56v4.apps.googleusercontent.com",
          "client_type": 3
        }
      ],
      "api_key": [
        {
          "current_key": "AIzaSyBKL5Xqq0Nw_LAi0P5hSbivvk7-PtSOCq4"
        }
      ],
      "services": {
        "appinvite_service": {
          "other_platform_oauth_client": [
            {
              "client_id": "453684246268-06493ld3rhuaqgjecmp5fjodnsng56v4.apps.googleusercontent.com",
              "client_type": 3
            },
            {
              "client_id": "453684246268-r34s4clqdv2fbap7hosiv9aqcp9f7d61.apps.googleusercontent.com",
              "client_type": 2,
              "ios_info": {
                "bundle_id": "com.eww.iiride.driver"
              }
            }
          ]
        }
      }
    }
  ],
  "configuration_version": "1"
}